{
  "project_info": {
    "project_number": "334687865419",
    "firebase_url": "https://adhouse-177608.firebaseio.com",
    "project_id": "adhouse-177608",
    "storage_bucket": "adhouse-177608.appspot.com"
  },
  "client": [
    {
      "client_info": {
        "mobilesdk_app_id": "1:334687865419:android:a84da43ad1e5e178",
        "android_client_info": {
          "package_name": "com.wamztech.adhouse"
        }
      },
      "oauth_client": [
        {
          "client_id": "334687865419-5mtmvmk1ea09bs9mqd0bqi1bblcq821j.apps.googleusercontent.com",
          "client_type": 1,
          "android_info": {
            "package_name": "com.wamztech.adhouse",
            "certificate_hash": "bf2da9414fb573c3bbdfb90aab2094054d0100ac"
          }
        },
        {
          "client_id": "334687865419-oa65gsr7k3uh4i1sdb66i38p8q4tr2ff.apps.googleusercontent.com",
          "client_type": 3
        }
      ],
      "api_key": [
        {
          "current_key": "AIzaSyA-D0jj8Xsuj9Pq_rQTi1ASj3Lca94ciS0"
        }
      ],
      "services": {
        "analytics_service": {
          "status": 1
        },
        "appinvite_service": {
          "status": 2,
          "other_platform_oauth_client": [
            {
              "client_id": "334687865419-oa65gsr7k3uh4i1sdb66i38p8q4tr2ff.apps.googleusercontent.com",
              "client_type": 3
            }
          ]
        },
        "ads_service": {
          "status": 2
        }
      }
    }
  ],
  "configuration_version": "1"
}